<svg width="488" height="102" viewBox="0 0 488 102" fill="none" xmlns="http://www.w3.org/2000/svg">
<path d="M-39.4229 94.1632C138.009 134.235 1.26636 1.41599 291.188 3.6077C306.499 3.72344 487.694 6.60371 539.164 -7.7859L537.503 -22.0003L-39.4229 -22.0004V94.1632Z" fill="white"/>
</svg>
