<svg width="51" height="57" viewBox="0 0 51 57" fill="none" xmlns="http://www.w3.org/2000/svg">
<path d="M0.450209 45.3845L7.8617 33.3476L1.89901 30.9513C0.617307 30.4498 -0.051409 28.9452 0.505854 27.6078C1.00739 26.3261 2.512 25.6573 3.84943 26.2146L10.7038 29.0009L17.3352 18.19L10.9824 15.6266C9.70072 15.1251 9.03201 13.6205 9.58927 12.283C10.0908 11.0013 11.5954 10.3326 12.9328 10.8899L20.233 13.8434L27.9232 1.41641C28.5919 0.357609 29.8736 -0.0881945 31.0439 0.413342L32.1584 0.859146C33.6073 1.47213 34.2203 3.19967 33.3844 4.5371L26.1957 16.2396L36.7837 20.5306L44.474 8.10356C45.1427 7.04476 46.4243 6.59896 47.5946 7.1005L48.8205 7.60205C50.2694 8.21504 50.8825 9.94254 50.0466 11.28L42.8578 22.9825L48.8205 25.3787C50.1022 25.8803 50.7709 27.3849 50.2137 28.7223C49.7121 30.004 48.2075 30.6727 46.8701 30.1155L40.0159 27.3291L33.4958 38.1958L39.8487 40.7592C41.1304 41.2607 41.7991 42.7653 41.2418 44.1028C40.7403 45.3845 39.2357 46.0532 37.8983 45.4959L30.5981 42.5424L22.7407 55.3595C22.072 56.4183 20.7903 56.8641 19.62 56.3626L18.3383 55.861C16.8894 55.248 16.2764 53.5205 17.1123 52.1831L24.5239 40.1462L13.9359 35.8553L6.07848 48.6723C5.40977 49.7311 4.12814 50.1769 2.95789 49.6754L1.67616 49.1739C0.227277 48.4494 -0.385685 46.7219 0.450209 45.3845ZM27.3659 35.6881L33.9974 24.8772L23.4094 20.5863L16.7779 31.3972L27.3659 35.6881Z" fill="#E2E0E8"/>
</svg>
