<svg width="54" height="55" viewBox="0 0 54 55" fill="none" xmlns="http://www.w3.org/2000/svg">
<path fill-rule="evenodd" clip-rule="evenodd" d="M20.2209 15.8633L23.8502 19.4925L15.9987 27.3441L23.8502 35.1955L20.2209 38.8248L8.74023 27.3441L20.2209 15.8633Z" fill="#1C2A35"/>
<path fill-rule="evenodd" clip-rule="evenodd" d="M32.8797 15.8633L29.2504 19.4925L37.1019 27.3441L29.2504 35.1955L32.8797 38.8248L44.3604 27.3441L32.8797 15.8633Z" fill="#1C2A35"/>
<path d="M17.8733 8.57037C15.0273 5.72431 10.4129 5.72431 7.56687 8.57037C4.72082 11.4164 4.72082 16.0308 7.56687 18.8768L9.95302 21.263L6.24411 24.8126L3.93763 22.5061C-0.912804 17.6556 -0.912802 9.79155 3.93763 4.94112C8.78806 0.0906916 16.6522 0.0906944 21.5026 4.94113L29.9964 13.435L26.3672 17.0642L17.8733 8.57037Z" fill="#FEBC48"/>
<path d="M35.4476 46.7576C38.2937 49.6036 42.908 49.6036 45.7541 46.7576C48.6001 43.9115 48.6001 39.2972 45.7541 36.4511L43.2298 33.9268L46.8591 30.2976L49.3833 32.8219C54.2338 37.6723 54.2338 45.5364 49.3833 50.3868C44.5329 55.2373 36.6688 55.2373 31.8184 50.3868L23.505 42.0735L27.1343 38.4443L35.4476 46.7576Z" fill="#FEBC48"/>
<path d="M35.5774 8.25047C38.4235 5.40441 43.0379 5.40441 45.8839 8.25046C48.73 11.0965 48.73 15.7109 45.8839 18.5569L42.8228 21.6181L46.452 25.2473L49.5132 22.1862C54.3636 17.3357 54.3636 9.47165 49.5132 4.62122C44.6627 -0.229211 36.7986 -0.229208 31.9482 4.62122L29.006 7.56341L32.6353 11.1927L35.5774 8.25047Z" fill="#FEBC48"/>
<path d="M18.0032 46.4377C15.1571 49.2837 10.5428 49.2837 7.6967 46.4377C4.85065 43.5916 4.85065 38.9773 7.6967 36.1312L9.83328 33.9946L6.20404 30.3654L4.06746 32.502C-0.782969 37.3524 -0.782971 45.2165 4.06746 50.0669C8.91789 54.9174 16.782 54.9173 21.6324 50.0669L23.769 47.9303L20.1398 44.3011L18.0032 46.4377Z" fill="#FEBC48"/>
</svg>
